<?xml version="1.0" encoding="utf-8"?>
<!-- Generator: Adobe Illustrator 19.0.0, SVG Export Plug-In . SVG Version: 6.00 Build 0)  -->
<svg version="1.1" id="Capa_1" xmlns="http://www.w3.org/2000/svg" xmlns:xlink="http://www.w3.org/1999/xlink" x="0px" y="0px"
	 viewBox="-27 63 65 65" style="enable-background:new -27 63 65 65;" xml:space="preserve">
<style type="text/css">
	.st0{fill:#FF7F62;}
</style>
<g>
	<g>
		<path class="st0" d="M5.5,63C-12.4,63-27,77.6-27,95.5S-12.4,128,5.5,128S38,113.4,38,95.5S23.4,63,5.5,63z M5.5,124
			C-10.2,124-23,111.2-23,95.5S-10.2,67,5.5,67S34,79.8,34,95.5S21.2,124,5.5,124z"/>
		<circle class="st0" cx="6" cy="82.5" r="3.3"/>
		<path class="st0" d="M5.1,91.3c-1.1,0-2,0.9-2,2v17c0,1.1,0.9,2,2,2s2-0.9,2-2v-17C7.1,92.2,6.2,91.3,5.1,91.3z"/>
	</g>
</g>
</svg>
