<?xml version="1.0" encoding="utf-8"?>
<!-- Generator: Adobe Illustrator 19.0.0, SVG Export Plug-In . SVG Version: 6.00 Build 0)  -->
<svg version="1.1" id="Layer_1" xmlns="http://www.w3.org/2000/svg" xmlns:xlink="http://www.w3.org/1999/xlink" x="0px" y="0px"
	 viewBox="0 0 39.4 39.5" style="enable-background:new 0 0 39.4 39.5;" xml:space="preserve">
<style type="text/css">
	.st0{fill:#313333;}
</style>
<path class="st0" d="M19.9,9.8c-0.5,0-1,0.4-1,1l0,8h-8c-0.5,0-1,0.4-1,1c0,0.5,0.4,1,1,1h8l0,8c0,0.5,0.4,1,1,1
	c0.3,0,0.5-0.1,0.7-0.3s0.3-0.4,0.3-0.7l0-8l8,0c0.3,0,0.5-0.1,0.7-0.3c0.2-0.2,0.3-0.4,0.3-0.7c0-0.5-0.4-1-1-1h-8v-8
	C20.9,10.2,20.5,9.8,19.9,9.8z"/>
<g>
	<path class="st0" d="M19.7,0C8.8,0,0,8.9,0,19.7c0,10.9,8.9,19.7,19.7,19.7s19.7-8.9,19.7-19.7C39.4,8.9,30.6,0,19.7,0z M19.7,37.1
		c-9.5,0-17.3-7.8-17.3-17.3c0-9.5,7.8-17.3,17.3-17.3S37,10.2,37,19.7C37,29.3,29.2,37.1,19.7,37.1z"/>
</g>
<g id="XMLID_53_">
</g>
<g id="XMLID_54_">
</g>
<g id="XMLID_55_">
</g>
<g id="XMLID_56_">
</g>
<g id="XMLID_57_">
</g>
<g id="XMLID_58_">
</g>
</svg>
